OFF
16 8 0
-0.5000000000000000 -0.2000000029802322 0.0000000000000000
0.5000000000000000 -0.2000000029802322 0.0000000000000000
-0.5000000000000000 0.2000000029802322 0.0000000000000000
0.5000000000000000 0.2000000029802322 0.0000000000000000
0.2159831672906876 -0.4149634838104248 0.0022377204149961
0.6159831881523132 -0.4149634838104248 0.0022377204149961
0.2159831672906876 -0.3149634897708893 0.0022377173881978
0.6159831881523132 -0.3149634897708893 0.0022377173881978
-0.0961724817752838 -0.8434185385704041 0.0336683169007301
0.3038275241851807 -0.8434185385704041 0.0336683169007301
-0.0961725115776062 0.1565815061330795 0.0336682833731174
0.3038274943828583 0.1565815061330795 0.0336682833731174
-0.4989060461521149 -0.9251710176467896 0.0022370684891939
0.5010939836502075 -0.9251710176467896 0.0022370684891939
-0.4989060461521149 -0.5251709818840027 0.0022370554506779
0.5010939836502075 -0.5251709818840027 0.0022370554506779
3 1 2 0
3 5 6 4
3 9 10 8
3 13 14 12
3 1 3 2
3 5 7 6
3 9 11 10
3 13 15 14
